{
    "npcId": 1282,
    "talks": [
        {
            "id": 30318,
            "beginWay": "TALK_BEGIN_MANUAL",
            "beginCond": [
                {
                    "_type": "QUEST_COND_STATE_NOT_EQUAL",
                    "_param": [
                        "30318",
                        "3"
                    ]
                }
            ],
            "initDialog": 3031801,
            "npcId": [
                1282
            ],
            "performCfg": "",
            "assetIndex": 190712363418,
            "prePerformCfg": ""
        },
        {
            "id": 31172,
            "activeMode": "PLAY_MODE_ALL",
            "beginCondComb": "LOGIC_AND",
            "beginCond": [
                {
                    "_type": "QUEST_COND_AVATAR_ELEMENT_NOT_EQUAL",
                    "_param": [
                        "7"
                    ]
                },
                {
                    "_type": "QUEST_COND_AVATAR_CAN_CHANGE_ELEMENT",
                    "_param": [
                        "1"
                    ]
                },
                {
                    "_type": "QUEST_COND_STATE_EQUAL",
                    "_param": [
                        "35205",
                        "3"
                    ]
                }
            ],
            "priority": 1,
            "initDialog": 3172001,
            "npcId": [
                1201,
                1202,
                1203,
                1204,
                1205,
                1206,
                1207,
                1208,
                1209,
                1268,
                1272,
                1273,
                1274,
                1275,
                1277,
                1278,
                1279,
                1281,
                1282
            ],
            "performCfg": "",
            "assetIndex": 916351710043,
            "prePerformCfg": ""
        },
        {
            "id": 31173,
            "activeMode": "PLAY_MODE_ALL",
            "priority": 1,
            "initDialog": 3117301,
            "npcId": [
                1201,
                1202,
                1203,
                1204,
                1205,
                1206,
                1207,
                1208,
                1209,
                1268,
                1272,
                1273,
                1274,
                1275,
                1277,
                1278,
                1279,
                1281,
                1282
            ],
            "performCfg": "",
            "assetIndex": 751391150660,
            "prePerformCfg": ""
        },
        {
            "id": 31174,
            "activeMode": "PLAY_MODE_ALL",
            "priority": 1,
            "initDialog": 3117401,
            "npcId": [
                1201,
                1202,
                1203,
                1204,
                1205,
                1206,
                1207,
                1208,
                1209,
                1268,
                1272,
                1273,
                1274,
                1275,
                1277,
                1278,
                1279,
                1281,
                1282
            ],
            "performCfg": "",
            "assetIndex": 208119663057,
            "prePerformCfg": ""
        },
        {
            "id": 31175,
            "activeMode": "PLAY_MODE_ALL",
            "beginCondComb": "LOGIC_AND",
            "beginCond": [
                {
                    "_type": "QUEST_COND_AVATAR_ELEMENT_NOT_EQUAL",
                    "_param": [
                        "7"
                    ]
                },
                {
                    "_type": "QUEST_COND_AVATAR_CAN_CHANGE_ELEMENT",
                    "_param": [
                        "1"
                    ]
                },
                {
                    "_type": "QUEST_COND_STATE_EQUAL",
                    "_param": [
                        "35205",
                        "3"
                    ]
                }
            ],
            "priority": 1,
            "initDialog": 3115301,
            "npcId": [
                1201,
                1202,
                1203,
                1204,
                1205,
                1206,
                1207,
                1208,
                1209,
                1268,
                1272,
                1273,
                1274,
                1275,
                1277,
                1278,
                1279,
                1281,
                1282
            ],
            "performCfg": "",
            "assetIndex": 532901202459,
            "prePerformCfg": ""
        },
        {
            "id": 31176,
            "activeMode": "PLAY_MODE_ALL",
            "priority": 1,
            "initDialog": 3117601,
            "npcId": [
                1201,
                1202,
                1203,
                1204,
                1205,
                1206,
                1207,
                1208,
                1209,
                1268,
                1272,
                1273,
                1274,
                1275,
                1277,
                1278,
                1279,
                1281,
                1282
            ],
            "performCfg": "",
            "assetIndex": 845392681769,
            "prePerformCfg": ""
        },
        {
            "id": 31177,
            "activeMode": "PLAY_MODE_ALL",
            "priority": 1,
            "initDialog": 3117701,
            "npcId": [
                1201,
                1202,
                1203,
                1204,
                1205,
                1206,
                1207,
                1208,
                1209,
                1268,
                1272,
                1273,
                1274,
                1275,
                1277,
                1278,
                1279,
                1281,
                1282
            ],
            "performCfg": "",
            "assetIndex": 628902660693,
            "prePerformCfg": ""
        },
        {
            "id": 31178,
            "activeMode": "PLAY_MODE_ALL",
            "priority": 1,
            "initDialog": 3117801,
            "npcId": [
                1201,
                1202,
                1203,
                1204,
                1205,
                1206,
                1207,
                1208,
                1209,
                1268,
                1272,
                1273,
                1274,
                1275,
                1277,
                1278,
                1279,
                1281,
                1282
            ],
            "performCfg": "",
            "assetIndex": 769790447063,
            "prePerformCfg": ""
        },
        {
            "id": 31179,
            "activeMode": "PLAY_MODE_ALL",
            "beginCond": [
                {
                    "_type": "QUEST_COND_IS_WORLD_OWNER",
                    "_param": [
                        "1"
                    ]
                }
            ],
            "priority": 1,
            "initDialog": 3117901,
            "npcId": [
                1201,
                1202,
                1203,
                1204,
                1205,
                1206,
                1207,
                1208,
                1209,
                1268,
                1272,
                1273,
                1274,
                1275,
                1277,
                1278,
                1279,
                1281,
                1282
            ],
            "performCfg": "",
            "assetIndex": 635154092582,
            "prePerformCfg": ""
        },
        {
            "id": 31180,
            "activeMode": "PLAY_MODE_ALL",
            "beginCond": [
                {
                    "_type": "QUEST_COND_IS_WORLD_OWNER",
                    "_param": [
                        "1"
                    ]
                }
            ],
            "priority": 1,
            "initDialog": 3118001,
            "npcId": [
                1201,
                1202,
                1203,
                1204,
                1205,
                1206,
                1207,
                1208,
                1209,
                1268,
                1272,
                1273,
                1274,
                1275,
                1277,
                1278,
                1279,
                1281,
                1282
            ],
            "performCfg": "",
            "assetIndex": 1013189256433,
            "prePerformCfg": ""
        },
        {
            "id": 31181,
            "activeMode": "PLAY_MODE_ALL",
            "beginCondComb": "LOGIC_AND",
            "beginCond": [
                {
                    "_type": "QUEST_COND_STATE_EQUAL",
                    "_param": [
                        "46902",
                        "3"
                    ]
                },
                {
                    "_type": "QUEST_COND_IS_WORLD_OWNER",
                    "_param": [
                        "1"
                    ]
                }
            ],
            "priority": 1,
            "initDialog": 3118101,
            "npcId": [
                1201,
                1202,
                1203,
                1204,
                1205,
                1206,
                1207,
                1208,
                1209,
                1268,
                1272,
                1273,
                1274,
                1275,
                1277,
                1278,
                1279,
                1281,
                1282
            ],
            "performCfg": "",
            "assetIndex": 541868463350,
            "prePerformCfg": ""
        },
        {
            "id": 31182,
            "activeMode": "PLAY_MODE_ALL",
            "beginCond": [
                {
                    "_type": "QUEST_COND_IS_WORLD_OWNER",
                    "_param": [
                        "1"
                    ]
                }
            ],
            "priority": 1,
            "initDialog": 3118201,
            "npcId": [
                1201,
                1202,
                1203,
                1204,
                1205,
                1206,
                1207,
                1208,
                1209,
                1268,
                1272,
                1273,
                1274,
                1275,
                1277,
                1278,
                1279,
                1281,
                1282
            ],
            "performCfg": "",
            "assetIndex": 564049018009,
            "prePerformCfg": ""
        },
        {
            "id": 31183,
            "activeMode": "PLAY_MODE_ALL",
            "beginCondComb": "LOGIC_AND",
            "beginCond": [
                {
                    "_type": "QUEST_COND_AVATAR_ELEMENT_NOT_EQUAL",
                    "_param": [
                        "8"
                    ]
                },
                {
                    "_type": "QUEST_COND_AVATAR_CAN_CHANGE_ELEMENT",
                    "_param": [
                        "1"
                    ]
                },
                {
                    "_type": "QUEST_COND_STATE_EQUAL",
                    "_param": [
                        "35205",
                        "3"
                    ]
                }
            ],
            "priority": 1,
            "initDialog": 3118301,
            "npcId": [
                1201,
                1202,
                1203,
                1204,
                1205,
                1206,
                1207,
                1208,
                1209,
                1268,
                1272,
                1273,
                1274,
                1275,
                1277,
                1278,
                1279,
                1281,
                1282
            ],
            "performCfg": "",
            "assetIndex": 737922248518,
            "prePerformCfg": ""
        },
        {
            "id": 31184,
            "activeMode": "PLAY_MODE_ALL",
            "beginCondComb": "LOGIC_AND",
            "beginCond": [
                {
                    "_type": "QUEST_COND_AVATAR_ELEMENT_NOT_EQUAL",
                    "_param": [
                        "4"
                    ]
                },
                {
                    "_type": "QUEST_COND_AVATAR_CAN_CHANGE_ELEMENT",
                    "_param": [
                        "1"
                    ]
                },
                {
                    "_type": "QUEST_COND_STATE_EQUAL",
                    "_param": [
                        "35205",
                        "3"
                    ]
                }
            ],
            "priority": 1,
            "initDialog": 3118401,
            "npcId": [
                1201,
                1202,
                1203,
                1204,
                1205,
                1206,
                1207,
                1208,
                1209,
                1268,
                1272,
                1273,
                1274,
                1275,
                1277,
                1278,
                1279,
                1281,
                1282
            ],
            "performCfg": "",
            "assetIndex": 776725702136,
            "prePerformCfg": ""
        },
        {
            "id": 31185,
            "beginWay": "TALK_BEGIN_MANUAL",
            "activeMode": "PLAY_MODE_ALL",
            "beginCondComb": "LOGIC_AND",
            "beginCond": [
                {
                    "_type": "QUEST_COND_STATE_EQUAL",
                    "_param": [
                        "30318",
                        "3"
                    ]
                },
                {
                    "_type": "QUEST_COND_SCENE_AREA_UNLOCKED",
                    "_param": [
                        "3",
                        "24"
                    ]
                }
            ],
            "nextTalks": [
                31158,
                31161,
                31157,
                31156
            ],
            "initDialog": 3118501,
            "npcId": [
                1282
            ],
            "performCfg": "",
            "assetIndex": 706114209443,
            "prePerformCfg": ""
        }
    ]
}