{
    "talkId": 30318,
    "type": "FREE",
    "dialogList": [
        {
            "id": 3031801,
            "talkRole": {
                "_type": "TALK_ROLE_NPC",
                "_id": "1282"
            },
            "talkContentTextMapHash": 3373001883,
            "talkAssetPath": "",
            "talkAssetPathAlter": "",
            "talkAudioName": "",
            "actionBefore": "TEST/LerpInQueen",
            "actionWhile": "",
            "actionAfter": "",
            "optionIcon": ""
        }
    ]
}