{
  "$type": "ConfigMonster",
  "headControl": {
    "$type": "ConfigHeadControl",
    "useHeadControl": true,
    "maxYawDegree": 45,
    "maxPitchDegree": 15,
    "animStates": [
      "NormalIdle/Standby",
      "NormalMove/WalkForward",
      "NormalMove/WalkBack",
      "NormalMove/WalkRight",
      "NormalMove/WalkLeft",
      "NormalMove/Run",
      "Turn/TurnLeft",
      "Turn/TurnRight"
    ]
  },
  "common": {
    "scale": 1.1,
    "viewSize": 1.5,
    "effectAttachShape": {
      "$type": "ConfigEffectAttachSkinnedMesh",
      "mesh": "EffectMesh"
    },
    "mass": 10000.0,
    "useGrassDisplacement": true,
    "affectedByWorld": true,
    "checkInSurface": true,
    "clearAnimatorOnSetLightDeactive": true,
    "clearAIOnSetLightDeactive": true,
    "height": 1.6,
    "modelHeight": 1.6,
    "recoverByInitPose": true
  },
  "move": {
    "$type": "ConfigAnimatorMove",
    "facingMove": "FourDirection",
    "monsterSizeType": "StoopType",
    "positionModifyExtra": true
  },
  "model": {
    "bornEffect": "Eff_Monster_Common_Born"
  },
  "dither": {
    "showDitherDuration": 1.0
  },
  "equipController": {
    "attachPoints": {
      "equip01": "WeaponR",
      "equip02": "WeaponL"
    },
    "sheathPoint": ""
  },
  "billboard": {
    "$type": "ConfigCombatBillboard",
    "offsetType": "Character",
    "offset": {
      "x": -0.35,
      "y": 0,
      "z": 0
    },
    "radiusOffset": 0,
    "showHPBar": true,
    "size": "Big"
  },
  "combat": {
    "property": {
      "endureType": "Monster_Grunt_Other",
      "weight": 70 //weightLevel = 3
    },
    "combatLock": {
      "denyLockOn": false,
      "lockType": "Avatar&Monster_Lv4"
    },
    "beHit": {
      "hitBloodEffect": "",
      "muteAllHit": false,
      "muteAllHitEffect": false,
      "muteAllHitText": false
    },
    "die": {
      "hasAnimatorDie": true,
      // "dieDisappearEffect": "Eff_Death_Sand_Eremite",
      "dieShaderData": "EremiteSandDie",
      "dieShaderEnableDurationTime": 1.0,
      "dieEndTime": 2.0,
      "dieForceDisappearTime": 8.0,
      "muteHitBox": true,
      "dieDenyLockOn": true,
      "dieIsGhostToEnemy": true,
      "dieIgnoreTriggerBullet": true,
      "muteBillboard": true,
      "mutePushCollider": true
    },
    "animEvents": {
      "NormalAtk01_01": {
        "attackPattern": {
          "$type": "ConfigAttackCircle",
          "triggerType": "TriggerNoRepeat",
          "height": 1.5,
          "fanAngle": 160,
          "radius": 2.2,
          "born": {
            "$type": "ConfigBornBySelf",
            "offset": {
              "x": 0.0,
              "y": 0.0,
              "z": 0.7
            }
          }
        },
        "attackInfo": {
          "attackProperty": {
            "damagePercentage": 0.4,
            "strikeType": "Blunt",
            "overrideByWeapon": false,
            "attackType": "Melee",
            "elementType": "Water",
            "elementDurability": 25,
            "enBreak": 100
          },
          "hitPattern": {
            "onHitEffectName": "default",
            "hitImpulseType": "LV3",
            "canBeDefenceHalt": true,
            "muteHitText": false,
            "retreatType": "ByAttacker"
          }
        }
      },
      "NormalAtk01_02": {
        "attackPattern": {
          "$type": "ConfigAttackBox",
          "triggerType": "TriggerNoRepeat",
          "size": {
            "x": 1,
            "y": 1,
            "z": 2.5
          },
          "born": {
            "$type": "ConfigBornBySelf",
            "offset": {
              "x": -0.5,
              "y": 1,
              "z": 1
            }
          }
        },
        "attackInfo": {
          "attackProperty": {
            "damagePercentage": 0.5,
            "strikeType": "Blunt",
            "overrideByWeapon": false,
            "attackType": "Melee",
            "elementType": "Water",
            "elementDurability": 25,
            "enBreak": 100
          },
          "hitPattern": {
            "onHitEffectName": "default",
            "hitImpulseType": "LV3",
            "canBeDefenceHalt": true,
            "muteHitText": false,
            "retreatType": "ByAttacker"
          }
        }
      },
      "ImprovedNormalAtk01_01": {
        "attackPattern": {
          "$type": "ConfigAttackCircle",
          "triggerType": "TriggerNoRepeat",
          "height": 2.2,
          "fanAngle": 180,
          "radius": 3,
          "born": {
            "$type": "ConfigBornBySelf",
            "offset": {
              "x": 0.0,
              "y": 0.0,
              "z": 0.7
            }
          }
        },
        "attackInfo": {
          "attackProperty": {
            "damagePercentage": 0.6,
            "strikeType": "Blunt",
            "overrideByWeapon": false,
            "attackType": "Melee",
            "elementType": "Water",
            "elementDurability": 25,
            "enBreak": 200
          },
          "hitPattern": {
            "onHitEffectName": "default",
            "hitImpulseType": "LV3",
            "canBeDefenceHalt": true,
            "muteHitText": false,
            "retreatType": "ByAttacker"
          }
        }
      },
      "ImprovedNormalAtk01_02": {
        "attackPattern": {
          "$type": "ConfigAttackBox",
          "triggerType": "TriggerNoRepeat",
          "size": {
            "x": 1,
            "y": 1.5,
            "z": 3.5
          },
          "born": {
            "$type": "ConfigBornBySelf",
            "offset": {
              "x": -0.5,
              "y": 1,
              "z": 1
            }
          }
        },
        "attackInfo": {
          "attackProperty": {
            "damagePercentage": 0.5,
            "strikeType": "Blunt",
            "overrideByWeapon": false,
            "attackType": "Melee",
            "elementType": "Water",
            "elementDurability": 25,
            "enBreak": 100
          },
          "hitPattern": {
            "onHitEffectName": "default",
            "hitImpulseType": "LV3",
            "canBeDefenceHalt": true,
            "muteHitText": false,
            "retreatType": "ByAttacker"
          }
        }
      },
      "MeleeAttack": {
        "attackPattern": {
          "$type": "ConfigAttackBox",
          "muteHitBehindScene": true,
          "checkHitLayerType": "OnlyHitBox",
          "ignoreMassive": true,
          "size": {
            "x": 1,
            "y": 3.8,
            "z": 2.5
          },
          "triggerType": "TriggerNoRepeat",
          "born": {
            "$type": "ConfigBornBySelf",
            "offset": {
              "x": 0,
              "y": 0,
              "z": 0
            }
          }
        },
        "attackInfo": {
          "attackProperty": {
            "damagePercentage": 0.5,
            "strikeType": "Blunt",
            "overrideByWeapon": false,
            "elementDurability": 25,
            "elementType": "Water",
            "attackType": "Melee",
            "enBreak": 100
          },
          "hitPattern": {
            "onHitEffectName": "default",
            "hitImpulseType": "LV4",
            "canBeDefenceHalt": true,
            "muteHitText": false,
            "retreatType": "ByAttacker"
          }
        }
      },
      "ImprovedMeleeAttack": {
        "attackPattern": {
          "$type": "ConfigAttackBox",
          "muteHitBehindScene": true,
          "checkHitLayerType": "OnlyHitBox",
          "ignoreMassive": true,
          "size": {
            "x": 1,
            "y": 3.8,
            "z": 2.5
          },
          "triggerType": "TriggerNoRepeat",
          "born": {
            "$type": "ConfigBornBySelf",
            "offset": {
              "x": 0,
              "y": 0,
              "z": 0
            }
          }
        },
        "attackInfo": {
          "attackProperty": {
            "damagePercentage": 0.7,
            "strikeType": "Blunt",
            "overrideByWeapon": false,
            "elementDurability": 25,
            "elementType": "Water",
            "attackType": "Melee",
            "enBreak": 100
          },
          "hitPattern": {
            "onHitEffectName": "default",
            "hitImpulseType": "LV4",
            "canBeDefenceHalt": true,
            "muteHitText": false,
            "retreatType": "ByAttacker"
          }
        }
      },
      "SlamAtk01": {
        "attackPattern": {
          "$type": "ConfigAttackCircle",
          "triggerType": "TriggerNoRepeat",
          "height": 1.6,
          "fanAngle": 90,
          "radius": 1.5,
          "born": {
            "$type": "ConfigBornBySelf",
            "offset": {
              "x": 0.0,
              "y": 0.0,
              "z": 0.7
            }
          }
        },
        "attackInfo": {
          "attackProperty": {
            "damagePercentage": 0.5,
            "strikeType": "Slash",
            "overrideByWeapon": false,
            "attackType": "Melee",
            "elementType": "Water",
            "elementDurability": 25,
            "enBreak": 200
          },
          "hitPattern": {
            "onHitEffectName": "default",
            "hitImpulseType": "LV4",
            "canBeDefenceHalt": true,
            "muteHitText": false,
            "retreatType": "ByAttacker"
          },
          "cameraShake": {
            "shakeType": "CustomVector",
            "shakeRange": 0.1,
            "shakeTime": 0.1,
            "shakeDistance": 30,
            "shakeDir": {
              "x": 0,
              "y": 1,
              "z": 1
            }
          }
        }
      },
      "ImproveSlamAtk01": {
        "attackPattern": {
          "$type": "ConfigAttackCircle",
          "triggerType": "TriggerNoRepeat",
          "height": 3,
          "fanAngle": 180,
          "radius": 3.5,
          "born": {
            "$type": "ConfigBornBySelf",
            "offset": {
              "x": 0.0,
              "y": 0.0,
              "z": 0.2
            }
          }
        },
        "attackInfo": {
          "attackProperty": {
            "damagePercentage": 0.75,
            "strikeType": "Blunt",
            "overrideByWeapon": false,
            "attackType": "Melee",
            "elementType": "Water",
            "elementDurability": 50,
            "enBreak": 200
          },
          "hitPattern": {
            "onHitEffectName": "default",
            "hitImpulseType": "LV4",
            "canBeDefenceHalt": true,
            "muteHitText": false,
            "retreatType": "ByAttacker"
          },
          "cameraShake": {
            "shakeType": "CustomVector",
            "shakeRange": 0.1,
            "shakeTime": 0.1,
            "shakeDistance": 30,
            "shakeDir": {
              "x": 0,
              "y": 1,
              "z": 1
            }
          }
        }
      },
      "ImproveSlamAtk02_01": {
        "attackPattern": {
          "$type": "ConfigAttackCircle",
          "triggerType": "TriggerNoRepeat",
          "height": 3,
          "fanAngle": 90,
          "radius": 2.5,
          "born": {
            "$type": "ConfigBornBySelf",
            "offset": {
              "x": 0.0,
              "y": 0.0,
              "z": 0.2
            }
          }
        },
        "attackInfo": {
          "attackProperty": {
            "damagePercentage": 0.5,
            "strikeType": "Blunt",
            "overrideByWeapon": false,
            "attackType": "Melee",
            "elementType": "Water",
            "elementDurability": 25,
            "enBreak": 200
          },
          "hitPattern": {
            "onHitEffectName": "default",
            "hitImpulseType": "LV4",
            "canBeDefenceHalt": true,
            "muteHitText": false,
            "retreatType": "ByAttacker"
          },
          "cameraShake": {
            "shakeType": "CustomVector",
            "shakeRange": 0.1,
            "shakeTime": 0.1,
            "shakeDistance": 30,
            "shakeDir": {
              "x": 0,
              "y": 1,
              "z": 1
            }
          }
        }
      },
      "ImproveSlamAtk02_02": {
        "attackPattern": {
          "$type": "ConfigAttackCircle",
          "triggerType": "TriggerNoRepeat",
          "height": 1.5,
          "fanAngle": 180,
          "radius": 3,
          "born": {
            "$type": "ConfigBornBySelf",
            "offset": {
              "x": 0.0,
              "y": 0.0,
              "z": 0.2
            }
          }
        },
        "attackInfo": {
          "attackProperty": {
            "damagePercentage": 0.5,
            "strikeType": "Blunt",
            "overrideByWeapon": false,
            "attackType": "Melee",
            "elementType": "Water",
            "elementDurability": 25,
            "enBreak": 200
          },
          "hitPattern": {
            "onHitEffectName": "default",
            "hitImpulseType": "LV4",
            "canBeDefenceHalt": true,
            "muteHitText": false,
            "retreatType": "ByAttacker"
          },
          "cameraShake": {
            "shakeType": "CustomVector",
            "shakeRange": 0.1,
            "shakeTime": 0.1,
            "shakeDistance": 30,
            "shakeDir": {
              "x": 0,
              "y": 1,
              "z": 1
            }
          }
        }
      },
      "ImproveSlamAtk02_03": {
        "attackPattern": {
          "$type": "ConfigAttackCircle",
          "triggerType": "TriggerNoRepeat",
          "height": 3,
          "fanAngle": 180,
          "radius": 3.5,
          "born": {
            "$type": "ConfigBornBySelf",
            "offset": {
              "x": 0.0,
              "y": 0.0,
              "z": 0.2
            }
          }
        },
        "attackInfo": {
          "attackProperty": {
            "damagePercentage": 0.75,
            "strikeType": "Blunt",
            "overrideByWeapon": false,
            "attackType": "Melee",
            "elementType": "Water",
            "elementDurability": 50,
            "enBreak": 200
          },
          "hitPattern": {
            "onHitEffectName": "default",
            "hitImpulseType": "LV4",
            "canBeDefenceHalt": true,
            "muteHitText": false,
            "retreatType": "ByAttacker"
          },
          "cameraShake": {
            "shakeType": "CustomVector",
            "shakeRange": 0.1,
            "shakeTime": 0.1,
            "shakeDistance": 30,
            "shakeDir": {
              "x": 0,
              "y": 1,
              "z": 1
            }
          }
        }
      }
    }
  },
  "stateLayers": {
    "defaultLayer": {
      "$type": "ConfigNormalStateLayer",
      "stateIDs": {
        "NormalIdle": {
          "$type": "ConfigMonsterStateIDInfo",
          "animatorStates": {
            "Standby": [],
            "Born": []
          },
          "canDoSkill": true,
          "canSyncMove": true,
          "resetAnimatorTriggerOnExit": ["DoSkill"]
        },
        "Standby_Weak": {
          "$type": "ConfigMonsterStateIDInfo",
          "animatorStates": {
            "Standby_Weak": []
          },
          "canDoSkill": true,
          "canSyncMove": true,
          "resetAnimatorTriggerOnEnter": ["Recover"],
          "resetAnimatorTriggerOnExit": ["DoSkill"]
        },
        "NormalMove": {
          "$type": "ConfigMonsterStateIDInfo",
          "animatorStates": {
            "WalkForward": [
              "Audio_Monster_Eremite_Female_Slim_PushDagger_01_Walk"
            ],
            "WalkBack": [
              "Audio_Monster_Eremite_Female_Slim_PushDagger_01_Walk"
            ],
            "WalkRight": [
              "Audio_Monster_Eremite_Female_Slim_PushDagger_01_Walk"
            ],
            "WalkLeft": [
              "Audio_Monster_Eremite_Female_Slim_PushDagger_01_Walk"
            ],
            "Run": ["Audio_Monster_Eremite_Female_Slim_PushDagger_01_Run"]
          },
          "canDoSkill": true,
          "canSteer": true,
          "canSyncMove": true,
          "resetAnimatorTriggerOnExit": ["DoSkill"]
        },
        "Turn": {
          "$type": "ConfigMonsterStateIDInfo",
          "animatorStates": {
            "TurnLeft": [
              "Audio_Monster_Eremite_Female_Slim_PushDagger_01_Walk"
            ],
            "TurnRight": [
              "Audio_Monster_Eremite_Female_Slim_PushDagger_01_Walk"
            ]
          },
          "canDoSkill": true,
          "canSteer": true,
          "autoSteer": false,
          "canSyncMove": true,
          "resetAnimatorTriggerOnExit": ["DoSkill"]
        },
        "BeHit": {
          "$type": "ConfigMonsterStateIDInfo",
          "animatorStates": {
            "Hit_L": [],
            "Hit_H": ["Audio_Monster_Eremite_Female_Slim_PushDagger_01_Hit_H"]
          },
          "resetAnimatorTriggerOnEnter": ["BeHit"],
          "resetAnimatorTriggerOnExit": ["DoSkill"]
        },
        "BeHitThrow": {
          "$type": "ConfigMonsterStateIDInfo",
          "animatorStates": {
            "HitThrow": [
              "Audio_Monster_Eremite_Female_Slim_PushDagger_01_HitThrow"
            ],
            "HitThrowDrop": []
          },
          "resetAnimatorTriggerOnEnter": ["BeHit", "HitAir2HitDrop"],
          "resetAnimatorTriggerOnExit": ["DoSkill", "BeHit"],
          "setAnimatorBoolean": [
            {
              "$type": "ConfigAnimatorBoolean",
              "name": "AirDie"
            }
          ]
        },
        "BeHitThrowToStandby": {
          "$type": "ConfigMonsterStateIDInfo",
          "animatorStates": {
            "HitThrowToGround": [
              "Audio_Monster_Eremite_Female_Slim_PushDagger_01_HitThrowToGround"
            ]
          },
          "resetAnimatorTriggerOnEnter": ["BeHit", "HitAir2HitDrop"],
          "resetAnimatorTriggerOnExit": ["DoSkill", "BeHit"],
          "setAnimatorBoolean": [
            {
              "$type": "ConfigAnimatorBoolean",
              "name": "AirDie",
              "normalizeEnd": 0.62
            }
          ]
        },
        "HitThrowToGround_Weak": {
          "$type": "ConfigMonsterStateIDInfo",
          "animatorStates": {
            "HitThrowToGround_Weak": []
          },
          "resetAnimatorTriggerOnEnter": ["BeHit", "HitAir2HitDrop"],
          "resetAnimatorTriggerOnExit": ["DoSkill"]
        },
        "Struggle": {
          "$type": "ConfigMonsterStateIDInfo",
          "animatorStates": {
            "Struggle": []
          },
          "resetAnimatorTriggerOnEnter": ["BeHit", "HitAir2HitDrop"],
          "resetAnimatorTriggerOnExit": ["DoSkill"]
        },
        "Die": {
          "$type": "ConfigMonsterStateIDInfo",
          "animatorStates": {
            "Die1": [
              "Monster_Eremite_Female_Slim_PushDagger_Water_Die",
              "Audio_Monster_Eremite_Female_Slim_PushDagger_01_Die1_NoVo"
            ],
            "Die2": [
              "Monster_Eremite_Female_Slim_PushDagger_Water_Die",
              "Audio_Monster_Eremite_Female_Slim_PushDagger_01_Die1_NoVo"
            ],
            "SwimDie_BS": [],
            "SwimDie": ["Monster_Eremite_SwimDie"],
            "SwimDie_AS": []
          }
        },
        "Die_RagDoll": {
          "$type": "ConfigMonsterStateIDInfo",
          "animatorStates": {
            "AirDie": ["Monster_Eremite_AirDie"]
          },
          "enableRagDoll": false
        },
        ///////////////////////////////////////////////////////////////////
        //
        // Skill Subs
        //
        ///////////////////////////////////////////////////////////////////
        "Sit_Loop": {
          "$type": "ConfigMonsterStateIDInfo",
          "animatorStates": {
            "Sit_Loop": []
          },
          "addEndure": 0,
          "canDoSkill": true,
          "resetAnimatorTriggerOnExit": ["BeHit", "DoSkill"]
        },
        "Clear": {
          "$type": "ConfigMonsterStateIDInfo",
          "animatorStates": {
            "Clear": [
              "Monster_Eremite_Female_Slim_PushDagger_Water_SandClear",
              "Audio_Monster_Eremite_Female_Slim_PushDagger_01_Clear"
            ]
          },
          "canDoSkill": true,
          "addEndure": 0,
          "autoSteer": true,
          "resetAnimatorTriggerOnExit": ["BeHit", "DoSkill"]
        },
        "Dance": {
          "$type": "ConfigMonsterStateIDInfo",
          "animatorStates": {
            "Dance": ["Audio_Monster_Eremite_Female_Slim_PushDagger_01_Dance"]
          },
          "addEndure": 0,
          "canDoSkill": true,
          "resetAnimatorTriggerOnExit": ["BeHit", "DoSkill"]
        },
        "Squat": {
          "$type": "ConfigMonsterStateIDInfo",
          "animatorStates": {
            "Squat": []
          },
          "addEndure": 0,
          "canDoSkill": true,
          "resetAnimatorTriggerOnExit": ["BeHit", "DoSkill"]
        },
        "Lie": {
          "$type": "ConfigMonsterStateIDInfo",
          "animatorStates": {
            "Lie": []
          },
          "addEndure": 0,
          "canDoSkill": true,
          "resetAnimatorTriggerOnExit": ["BeHit", "DoSkill"]
        },
        "Alert": {
          "$type": "ConfigMonsterStateIDInfo",
          "animatorStates": {
            "Alert": [
              "Monster_Eremite_Female_Slim_PushDagger_Water_Alert",
              "Audio_Monster_Eremite_Female_Slim_PushDagger_01_Alert_NoVo"
            ]
          },
          "addEndure": 0,
          "massRatio": 20,
          "autoSteer": true,
          "canDoSkill": false,
          "resetAnimatorTriggerOnExit": ["BeHit", "DoSkill"]
        },
        "Sit_Alert": {
          "$type": "ConfigMonsterStateIDInfo",
          "animatorStates": {
            "Sit_Alert": [
              "Monster_Eremite_Female_Slim_PushDagger_Water_Alert",
              "Audio_Monster_Eremite_Female_Slim_PushDagger_01_Sit_Alert_NoVo"
            ]
          },
          "addEndure": 0,
          "massRatio": 20,
          "autoSteer": true,
          "canDoSkill": false,
          "resetAnimatorTriggerOnExit": ["BeHit", "DoSkill"]
        },
        "Squat_Alert": {
          "$type": "ConfigMonsterStateIDInfo",
          "animatorStates": {
            "Squat_Alert": [
              "Monster_Eremite_Female_Slim_PushDagger_Water_Alert",
              "Audio_Monster_Eremite_Female_Slim_PushDagger_01_Sit_Alert_NoVo"
            ]
          },
          "addEndure": 0,
          "massRatio": 20,
          "autoSteer": true,
          "canDoSkill": false,
          "resetAnimatorTriggerOnExit": ["BeHit", "DoSkill"]
        },
        "SheathWeapon": {
          "$type": "ConfigMonsterStateIDInfo",
          "animatorStates": {
            "SheathWeapon": [
              "Monster_Eremite_Female_Slim_PushDagger_Water_SheathWeapon",
              "Audio_Monster_Eremite_Female_Slim_PushDagger_01_SheathWeapon"
            ]
          },
          "addEndure": 0,
          "massRatio": 20,
          "canDoSkill": false,
          "resetAnimatorTriggerOnEnter": ["SheathWeaponTrigger"],
          "resetAnimatorTriggerOnExit": [
            "BeHit",
            "DoSkill",
            "SheathWeaponTrigger"
          ]
        },
        "Improve": {
          "$type": "ConfigMonsterStateIDInfo",
          "animatorStates": {
            "Improve": [
              "Monster_Eremite_Female_Slim_PushDagger_Water_Improve",
              "Audio_Monster_Eremite_Female_Slim_PushDagger_01_Improve_NoVo"
            ]
          },
          "resetAnimatorTriggerOnEnter": ["ForceImprove"],
          "resetAnimatorTriggerOnExit": ["BeHit", "DoSkill", "ForceImprove"],
          "addEndure": 0,
          "massRatio": 20
        },
        "Weak": {
          "$type": "ConfigMonsterStateIDInfo",
          "animatorStates": {
            "Weak_BS": [
              "Audio_Monster_Eremite_Female_Slim_PushDagger_01_Weak_BS_NoVo"
            ],
            "Weak_AS": [
              "Audio_Monster_Eremite_Female_Slim_PushDagger_01_Weak_AS"
            ]
          },
          "resetAnimatorTriggerOnEnter": ["Weak"],
          "resetAnimatorTriggerOnExit": ["DoSkill", "Recover"]
        },
        ///////////////////////////////////////////////////////////////////
        //
        // Attack Subs
        //
        ///////////////////////////////////////////////////////////////////
        "NormalAtk01": {
          "$type": "ConfigMonsterStateIDInfo",
          "animatorStates": {
            "NormalAtk01": [
              "Monster_Eremite_Female_Slim_PushDagger_Water_NormalAtk01",
              "Audio_Monster_Eremite_Female_Slim_PushDagger_01_NormalAtk"
            ]
          },
          "addEndure": 0,
          "massRatio": 20,
          "canSteer": true,
          "resetAnimatorTriggerOnExit": ["BeHit", "DoSkill"]
        },
        "MeleeAttackBS": {
          "$type": "ConfigMonsterStateIDInfo",
          "animatorStates": {
            "MeleeAttackBS": [
              "Audio_Monster_Eremite_Female_Slim_PushDagger_01_MeleeAttack_BS"
            ]
          },
          "addEndure": 0,
          "massRatio": 20,
          "canSteer": true,
          "resetAnimatorTriggerOnExit": ["BeHit", "DoSkill"]
        },
        "MeleeAtkBS02": {
          "$type": "ConfigMonsterStateIDInfo",
          "animatorStates": {
            "MeleeAtkBS02": [
              "Audio_Monster_Eremite_Female_Slim_PushDagger_01_Run"
            ]
          },
          "addEndure": 0,
          "massRatio": 20,
          "canSteer": true,
          "resetAnimatorTriggerOnExit": ["BeHit", "DoSkill"]
        },
        "ImproveMeleeAtkBS02": {
          "$type": "ConfigMonsterStateIDInfo",
          "animatorStates": {
            "ImproveMeleeAtkBS02": [
              "Audio_Monster_Eremite_Female_Slim_PushDagger_01_Run"
            ]
          },
          "canSteer": true,
          "resetAnimatorTriggerOnExit": ["BeHit", "DoSkill", "Weak"]
        },
        "MeleeRush": {
          "$type": "ConfigMonsterStateIDInfo",
          "animatorStates": {
            "MeleeRush": [
              "Audio_Monster_Eremite_Female_Slim_PushDagger_01_MeleeRush"
            ]
          },
          "addEndure": 0,
          "canSteer": true,
          "canSyncMove": true,
          "resetAnimatorTriggerOnExit": ["BeHit", "DoSkill", "NearTarget"]
        },
        "MeleeAttack": {
          "$type": "ConfigMonsterStateIDInfo",
          "animatorStates": {
            "MeleeAttack": [
              "Monster_Eremite_Female_Slim_PushDagger_Water_MeleeAttack",
              "Audio_Monster_Eremite_Female_Slim_PushDagger_01_MeleeAttack"
            ]
          },
          "addEndure": 0,
          "massRatio": 20,
          "resetAnimatorTriggerOnEnter": ["NearTarget"],
          "resetAnimatorTriggerOnExit": ["BeHit", "DoSkill"]
        },
        "MeleeAttackAS": {
          "$type": "ConfigMonsterStateIDInfo",
          "animatorStates": {
            "MeleeAttackAS": [
              "Audio_Monster_Eremite_Female_Slim_PushDagger_01_MeleeAttack_AS"
            ]
          },
          "addEndure": 0,
          "massRatio": 20,
          "canSteer": true,
          "resetAnimatorTriggerOnEnter": ["NearTarget"],
          "resetAnimatorTriggerOnExit": ["BeHit", "DoSkill"]
        },
        "SlamAtk01": {
          "$type": "ConfigMonsterStateIDInfo",
          "animatorStates": {
            "SlamAtk01": [
              "Monster_Eremite_Female_Slim_PushDagger_Water_SlamAtk01",
              "Audio_Monster_Eremite_Female_Slim_PushDagger_01_SlamAtk"
            ]
          },
          "addEndure": 0,
          "massRatio": 20,
          "canSteer": true,
          "resetAnimatorTriggerOnExit": ["BeHit", "DoSkill"]
        },
        "ImproveNormalAtk01": {
          "$type": "ConfigMonsterStateIDInfo",
          "animatorStates": {
            "ImproveNormalAtk01": [
              "Monster_Eremite_Female_Slim_PushDagger_Water_ImprovreNormalAtk01",
              "Audio_Monster_Eremite_Female_Slim_PushDagger_01_ImproveNormalAtk01"
            ]
          },
          "canSteer": true,
          "resetAnimatorTriggerOnExit": ["BeHit", "DoSkill", "Weak"]
        },
        "ImproveMeleeAttackBS": {
          "$type": "ConfigMonsterStateIDInfo",
          "animatorStates": {
            "ImproveMeleeAttackBS": [
              "Monster_Eremite_Female_Slim_PushDagger_Water_MeleeAttack_BS",
              "Audio_Monster_Eremite_Female_Slim_PushDagger_01_MeleeAttack_BS"
            ]
          },
          "canSteer": true,
          "resetAnimatorTriggerOnExit": ["BeHit", "DoSkill", "Weak"]
        },
        "ImproveMeleeRush": {
          "$type": "ConfigMonsterStateIDInfo",
          "animatorStates": {
            "ImproveMeleeRush": [
              "Audio_Monster_Eremite_Female_Slim_PushDagger_01_MeleeRush"
            ]
          },
          "canSteer": true,
          "canSyncMove": true,
          "resetAnimatorTriggerOnExit": [
            "BeHit",
            "DoSkill",
            "Weak",
            "NearTarget"
          ]
        },
        "ImproveMeleeAttack": {
          "$type": "ConfigMonsterStateIDInfo",
          "animatorStates": {
            "ImproveMeleeAttack": [
              "Monster_Eremite_Female_Slim_PushDagger_Water_ImprovedMeleeAttack",
              "Audio_Monster_Eremite_Female_Slim_PushDagger_01_ImproveMeleeAttack_NoVo"
            ]
          },
          "resetAnimatorTriggerOnEnter": ["NearTarget"],
          "resetAnimatorTriggerOnExit": ["BeHit", "DoSkill", "Weak"]
        },
        // "ImproveMeleeAtkAS" :
        // {
        // 	"$type": "ConfigMonsterStateIDInfo",
        // 	"animatorStates":
        // 	{
        // 		"ImproveMeleeAtkAS": [],
        // 	},
        // 	"canSteer" : true,
        // 	"resetAnimatorTriggerOnEnter": ["NearTarget"],
        // 	"resetAnimatorTriggerOnExit" : ["BeHit", "DoSkill","Weak"],
        // },
        "ImproveSlamAtk01": {
          "$type": "ConfigMonsterStateIDInfo",
          "animatorStates": {
            "ImproveSlamAtk01": [
              "Monster_Eremite_Female_Slim_PushDagger_Water_ImproveSlamAtk01",
              "Audio_Monster_Eremite_Female_Slim_PushDagger_01_ImproveSlamAtk01"
            ]
          },
          "canSteer": true,
          "resetAnimatorTriggerOnExit": ["BeHit", "DoSkill", "Weak"]
        },
        "ImproveSlamAtk02": {
          "$type": "ConfigMonsterStateIDInfo",
          "animatorStates": {
            "ImproveSlamAtk02": [
              "Monster_Eremite_Female_Slim_PushDagger_Water_ImproveSlamAtk02",
              "Audio_Monster_Eremite_Female_Slim_PushDagger_01_ImproveslamAtk02_NoVo"
            ]
          },
          "canSteer": true,
          "resetAnimatorTriggerOnExit": ["BeHit", "DoSkill", "Weak"]
        }
      }
    }
  },
  "abilities": [
    {
      "abilityID": "FightControl",
      "abilityName": "Monster_Eremite_Female_Slim_PushDagger_Water_FightControl"
    },
    {
      "abilityID": "ReturnToBorn",
      "abilityName": "Monster_Eremite_Female_Slim_PushDagger_Water_ReturnToBorn"
    },
    {
      "abilityID": "Alert",
      "abilityName": "Monster_Eremite_Female_Slim_PushDagger_Water_Alert"
    },
    {
      "abilityID": "Improve",
      "abilityName": "Monster_Eremite_Female_Slim_PushDagger_Water_Improve"
    },
    {
      "abilityID": "Die",
      "abilityName": "Monster_Eremite_Female_Slim_PushDagger_Water_Improve_Die"
    },
    {
      "abilityID": "Weak",
      "abilityName": "Monster_Eremite_Female_Slim_PushDagger_Water_Weak"
    },
    // {
    // 	"abilityID": "WeaponOnback",
    // 	"abilityName": "Monster_Eremite_Female_Slim_PushDagger_Water_WeaponOnback"
    // },
    {
      "abilityID": "DrawWeapon",
      "abilityName": "Monster_Eremite_Female_Slim_PushDagger_Water_DrawWeapon"
    },
    {
      "abilityID": "SheathWeapon",
      "abilityName": "Monster_Eremite_Female_Slim_PushDagger_Water_SheathWeapon"
    },
    {
      "abilityID": "HideWeapon",
      "abilityName": "Monster_Eremite_Female_Slim_PushDagger_Water_HideWeapon"
    },
    {
      "abilityID": "UnhideWeapon",
      "abilityName": "Monster_Eremite_Female_Slim_PushDagger_Water_UnhideWeapon"
    },
    {
      "abilityID": "UnhideWeapon",
      "abilityName": "Monster_Eremite_Female_Slim_PushDagger_Water_SteerControl"
    },
    {
      "abilityID": "RushMove",
      "abilityName": "Monster_Eremite_Female_Slim_PushDagger_Water_RushMove"
    },
    // {
    // 	"abilityID": "PushColliderOpen",
    // 	"abilityName": "Monster_Eremite_Female_Slim_PushDagger_Water_PushColliderOpen"
    // },
    // {
    // 	"abilityID": "PushColliderClosed",
    // 	"abilityName": "Monster_Eremite_Female_Slim_PushDagger_Water_PushColliderClosed"
    // },
    {
      "abilityID": "RushMove_Damage",
      "abilityName": "Monster_Eremite_Female_Slim_PushDagger_Water_RushMove_Damage"
    },
    {
      "abilityID": "Improve_Effect",
      "abilityName": "Monster_Eremite_Female_Slim_PushDagger_Water_Improve_Effect"
    },
    {
      "abilityID": "Improve_Effect02",
      "abilityName": "Monster_Eremite_Female_Slim_PushDagger_Water_Improve_Effect02"
    }
  ],
  "initialPoses": {
    "Default": {
      "initialPoseID": 1
    },
    "Sit": {
      "initialPoseID": 9001,
      "initialPoseParams": {
        "intParams": {
          "FreePoseMark": "9001"
        }
      }
    },
    "Dance": {
      "initialPoseID": 9003,
      "initialPoseParams": {
        "intParams": {
          "FreePoseMark": "9003"
        }
      }
    },
    "Squat": {
      "initialPoseID": 9004,
      "initialPoseParams": {
        "intParams": {
          "FreePoseMark": "9004"
        }
      }
    },
    "Lie": {
      "initialPoseID": 9005,
      "initialPoseParams": {
        "intParams": {
          "FreePoseMark": "9005"
        }
      }
    }
  },
  "aibeta": {
    "enable": true,
    "moveSetting": {
      "almostReachedDistanceRun": 1.5
    },
    "neurons": {
      "DefaultSetting": ["HIT"],
      "NeverCombat": []
    },
    "aiCombat": {
      "combatRole": "FIGHTER"
    },
    "profiling": {},
    "sensing": {
      "settings": {
        "DefaultSetting": {
          "viewRange": 30.0,
          "feelRange": 8.0
        },
        "HighAlert": {
          "viewRange": 40.0,
          "feelRange": 10.0
        },
        "LowAlert": {
          "viewRange": 15.0,
          "feelRange": 6.0
        },
        "NeverCombat": {
          "enableVision": false,
          "feelRange": 0.0,
          "hearAttractionRange": 0.0
        },
        "UltraLowSensing": {
          "viewRange": 10.0,
          "feelRange": 4.0,
          "hearAttractionRange": 0
        }
      },
      "templates": {
        "DefaultTemplate": {
          "DefaultPoses": "DefaultSetting"
        },
        "HighAlert": {
          "DefaultPoses": "HighAlert"
        },
        "LowAlert": {
          "DefaultPoses": "LowAlert"
        },
        "NeverCombat": {
          "DefaultPoses": "NeverCombat"
        },
        "UltraLowSensing": {
          "DefaultPoses": "UltraLowSensing"
        }
      }
    },
    "defendArea": {
      "enable": true,
      "defendRange": 50
    },
    "threat": {
      "clearThreatByLostPath": true,
      "clearThreatTimerByLostPath": 10,
      "clearThreatTimerByDistance": 3.0,
      "viewAttenuation": [
        { "x": 10.0, "y": 2.0 },
        { "x": 15.0, "y": 0.8 },
        { "x": 20.0, "y": 0.5 },
        { "x": 25.0, "y": 0.3 },
        { "x": 30.0, "y": 0.2 }
      ],
      "resistTauntLevel": "Monster_TauntLevel_2"
    },
    "skillGroupCDConfigs": [
      {
        "$type": "ConfigAISkillGroupCD",
        "skillGroupCDID": 1,
        "skillGroupCDTime": 1
      },
      {
        "$type": "ConfigAISkillGroupCD",
        "skillGroupCDID": 2,
        "skillGroupCDTime": 2
      },
      {
        "$type": "ConfigAISkillGroupCD",
        "skillGroupCDID": 3,
        "skillGroupCDTime": 3
      }
    ],
    "returnToBornTactic": {
      "enable": true,
      "defaultSetting": {
        "speedLevel": 2
      }
    },
    "wanderTactic": {
      "enable": true,
      "condition": {
        "pose": [1]
      },
      "defaultSetting": {
        "speedLevel": 1,
        "turnSpeedOverride": 1.0,
        "cdMin": 2.5,
        "cdMax": 5.0,
        "distanceFromBorn": 15.0,
        "distanceFromCurrentMin": 4,
        "distanceFromCurrentMax": 6
      }
    },
    "investigateTactic": {
      "enable": true,
      "condition": {
        "pose": [1]
      }
    },
    "facingMoveTactic": {
      "enable": true,
      "condition": {
        "pose": [101, 102, 201]
      },
      "defaultSetting": {
        "speedLevel": 1,
        "rangeMin": 2.5,
        "rangeMax": 6,
        "restTimeMin": 1,
        "restTimeMax": 2,
        "facingMoveTurnInterval": 1.5,
        "obstacleDetectRange": 1,
        "facingMoveWeight": {
          "stop": 0.5,
          "forward": 1.0,
          "back": 0.5,
          "left": 1.0,
          "right": 1.0
        }
      }
    },
    "meleeChargeTactic": {
      "enable": true,
      "condition": {
        "pose": [101, 102, 201]
      },
      "defaultSetting": {
        "speedLevel": 1,
        "turnSpeedOverride": 0.8,
        "stopDistance": 3.0,
        "startDistanceMin": 8.0,
        "startDistanceMax": 99.0,
        "useMeleeSlot": false
      }
    },
    "network": {
      "syncSkill": true
    },
    "skillGCD": 2.0,
    "skills": {
      "101": {
        "name": "OnAlert",
        "stateIDs": ["Alert"],
        "skillType": "OnAlert",
        "skillQueryingTime": 3,
        "triggerGCD": false,
        "ignoreGCD": true,
        "castCondition": {
          "pose": [1, 9003]
        }
      },
      "102": {
        "name": "OnAlert",
        "stateIDs": ["Alert"],
        "skillType": "OnNerve",
        "skillQueryingTime": 3,
        "triggerGCD": false,
        "ignoreGCD": true,
        "castCondition": {
          "pose": [1, 9003]
        },
        "nerveTrigger": ["HIT"]
      }, //普通，跳舞入战
      "111": {
        "name": "OnAlert_Crossleg",
        "stateIDs": ["Sit_Alert"],
        "skillType": "OnAlert",
        "skillQueryingTime": 3,
        "triggerGCD": true,
        "ignoreGCD": true,
        "castCondition": {
          "pose": [9001, 9005]
        }
      },
      "112": {
        "name": "OnAlert_Crossleg",
        "stateIDs": ["Sit_Alert"],
        "skillType": "OnNerve",
        "skillQueryingTime": 3,
        "triggerGCD": true,
        "ignoreGCD": true,
        "castCondition": {
          "pose": [9001, 9005]
        },
        "nerveTrigger": ["HIT"]
      }, //坐，躺下入战
      "121": {
        "name": "OnAlert_Crossleg",
        "stateIDs": ["Squat_Alert"],
        "skillType": "OnAlert",
        "skillQueryingTime": 3,
        "triggerGCD": true,
        "ignoreGCD": true,
        "castCondition": {
          "pose": [9004]
        }
      },
      "122": {
        "name": "OnAlert_Crossleg",
        "stateIDs": ["Squat_Alert"],
        "skillType": "OnNerve",
        "skillQueryingTime": 3,
        "triggerGCD": true,
        "ignoreGCD": true,
        "castCondition": {
          "pose": [9004]
        },
        "nerveTrigger": ["HIT"]
      }, //坐，躺下入战
      "201": {
        "cd": 3,
        "cdUpperRange": 2.0,
        "skillGroupCDID": 3,
        "name": "NormalAtk01",
        "triggerGCD": true,
        "ignoreGCD": false,
        "flagSelfInZone": "11",
        "stateIDs": ["NormalAtk01"],
        "castCondition": {
          "pickRangeMin": 0.0,
          "pickRangeMax": 4.0,
          "pose": [101, 102]
        }
      },
      "211": {
        "cd": 10,
        "initialCD": 5,
        "initialCDUpperRange": 2,
        "cdUpperRange": 2.5,
        "triggerGCD": true,
        "ignoreGCD": false,
        "priority": 3,
        "name": "MeleeAttack",
        "stateIDs": [
          "MeleeAttackBS",
          "MeleeAtkBS02",
          "MeleeRush",
          "MeleeAttack",
          "MeleeAttackAS"
        ],
        "castCondition": {
          "pickRangeMin": 5,
          "pickRangeMax": 25,
          "pose": [101, 102]
        }
      },
      "221": {
        "cd": 6,
        "cdUpperRange": 2.0,
        "skillGroupCDID": 3,
        "initialCD": 7,
        "initialCDUpperRange": 4,
        "triggerGCD": true,
        "ignoreGCD": false,
        "flagTargetInZone": "11",
        "name": "SlamAtk01",
        "stateIDs": ["SlamAtk01"],
        "castCondition": {
          "pickRangeMin": 0.0,
          "pickRangeMax": 4.0,
          "pose": [101, 102]
        }
      },
      "301": {
        "cd": 3.5,
        "cdUpperRange": 2.0,
        "triggerGCD": true,
        "ignoreGCD": false,
        "skillGroupCDID": 1,
        "flagTargetInZone": "11",
        "name": "ImproveNormalAtk01",
        "stateIDs": ["ImproveNormalAtk01", "ImproveSlamAtk01"],
        "castCondition": {
          "pickRangeMin": 0.0,
          "pickRangeMax": 5.0,
          "pose": [201]
        }
      },
      "311": {
        "cd": 8,
        "cdUpperRange": 3,
        "initialCD": 3,
        "name": "Improve_MeleeAttk02",
        "triggerCDOnStart": true,
        "triggerGCD": true,
        "ignoreGCD": false,
        "stateIDs": [
          "ImproveMeleeAttackBS",
          "ImproveMeleeAtkBS02",
          "ImproveMeleeRush",
          "ImproveMeleeAttack",
          "ImproveSlamAtk01"
        ],
        "castCondition": {
          "pickRangeMin": 5,
          "pickRangeMax": 25,
          "pose": [201]
        }
      },
      // "321":
      // {
      // 	"cd": 10,
      // 	"cdUpperRange": 5.0,
      // 	"triggerGCD": true,
      // 	"ignoreGCD": false,
      // 	"skillGroupCDID": 2,
      // 	"name": "Improve_MeleeAttk02",
      // 	"stateIDs":
      // 	[
      // 		"ImproveSlamAtk01"
      // 	],
      // 	"castCondition":
      // 	{
      // 		"pickRangeMin": 0.0,
      // 		"pickRangeMax": 3.0,
      // 		"pose": [201]
      // 	},
      // },
      "331": {
        "cd": 10,
        "cdUpperRange": 2.0,
        "triggerGCD": true,
        "ignoreGCD": false,
        "name": "Improve_SlamAtk02",
        "flagSelfInZone": "11",
        "stateIDs": ["ImproveSlamAtk02"],
        "castCondition": {
          "pickRangeMin": 0.0,
          "pickRangeMax": 5.0,
          "pose": [201]
        }
      },
      "401": {
        "cd": 10,
        "name": "Improve_First",
        "stateIDs": ["Improve"],
        "triggerGCD": true,
        "ignoreGCD": false,
        "triggerCDOnFail": false,
        "skillType": "Combat",
        "skillQueryingTime": 3,
        "priority": 2,
        "flagSelfInZone": "11",
        "flagSelfOnTemplateCollider": "11",
        "flagTargetReachable": "11",
        "flagTargetInZone": "11",
        "castCondition": {
          "pose": [111]
        }
      },
      "402": {
        "cd": 30,
        "initialCD": 30,
        "name": "Improve_NotFirst",
        "stateIDs": ["Improve"],
        "triggerCDOnFail": false,
        "triggerGCD": false,
        "ignoreGCD": true,
        "skillType": "Combat",
        "skillQueryingTime": 3,
        "priority": 2,
        "flagSelfInZone": "11",
        "flagSelfOnTemplateCollider": "11",
        "flagTargetReachable": "11",
        "flagTargetInZone": "11",
        "castCondition": {
          "pose": [102]
        }
      },
      "9001": {
        "cd": 50,
        "cdUpperRange": 15,
        "initialCD": 15,
        "name": "Clear_PlayShow",
        "stateIDs": ["Clear"],
        "triggerGCD": false,
        "ignoreGCD": true,
        "skillType": "Free",
        "skillQueryingTime": 3,
        "castCondition": {
          "pose": [2, 1]
        }
      }
    }
  },
  "inputKeys": [
    {
      // Slash01
      "keyID": 201,
      "inputKeyCode": 258 // 1
    },
    {
      // Slash02
      "keyID": 211,
      "inputKeyCode": 259 // 2
    },
    {
      // Slash02
      "keyID": 221,
      "inputKeyCode": 260 // 3
    },
    {
      // ChargedAttack
      "keyID": 301,
      "inputKeyCode": 261 // 4
    },
    {
      // ChargedAttack
      "keyID": 311,
      "inputKeyCode": 262 // 5
    },
    {
      // ChargedAttack
      "keyID": 321,
      "inputKeyCode": 263 // 6
    },
    {
      // ChargedAttack
      "keyID": 331,
      "inputKeyCode": 264 // 7
    },
    {
      // ChargedAttack
      "keyID": 401,
      "inputKeyCode": 265 // 8
    }
  ],
  "audio": {
    "$type": "ConfigMonsterAudio",
    "animAudio": {
      "onTransitionOut": [
        {
          "currentStateName": "Dance",
          "audioEvent": {
            "text": "Stop_sfx_monster_Eremite_Female_Slim_PushDagger_dance"
          },
          "otherStateNames": [],
          "usage": "Any"
        }
      ],
      "onTransitionIn": [
        {
          "currentStateName": "",
          "audioEvent": {
            "text": ""
          },
          "otherStateNames": [],
          "usage": "Any"
        }
      ]
    }
  }
}
