{
  "$type": "ConfigMonster",
  // "headControl":
  // {
  // 	"$type": "ConfigHeadControl",
  // 	"useHeadControl": true,
  // 	"maxYawDegree": 20,
  // 	"maxPitchDegree": 5,
  // 	"animStates":
  // 	[
  // 		"NormalIdle/Standby",
  // 		"NormalIdle/Born",
  // 		"NormalMove/Walk",
  // 		"NormalMove/Run",
  // 		"Attack01_Turn_L/Attack01_Turn_L",
  // 		"Attack01_Turn_R/Attack01_Turn_R",
  // 		"Attack01_Turn_L_HitScence/Attack01_Turn_L_HitScence",
  // 		"Attack01_Turn_R_HitScence/Attack01_Turn_R_HitScence",
  // 		"Attack02_Turn_L/Attack02_Turn_L",
  // 		"Attack02_Turn_R/Attack02_Turn_R",
  // 		"Attack02_Turn_L_HitScence/Attack02_Turn_L_HitScence",
  // 		"Attack02_Turn_R_HitScence/Attack02_Turn_R_HitScence",
  // 	],
  // },
  "common": {
    "mass": 10000.0,
    "affectedByWorld": true,
    "checkInSurface": true,
    "scale": 1.6,
    "viewSize": 1.6,
    "height": 3.2,
    "effectAttachShape": {
      "$type": "ConfigEffectAttachSkinnedMesh",
      "mesh": "EffectMesh"
    },
    "useGrassDisplacement": true,
    "clearAnimatorOnSetLightDeactive": true,
    "clearAIOnSetLightDeactive": true,
    "recoverByInitPose": true
  },
  "specialPoint": {
    "bulletAim": "Waist"
  },
  "move": {
    "$type": "ConfigAnimatorMove",
    "facingMove": "ForwardOnly",
    "monsterSizeType": "OtherType",
    "velocityForce": {
      "excludeForces": ["RetreatAirType", "WindZoneType", "AirflowType"]
    }
  },
  "clothoid": {
    "$type": "ConfigClothoid",
    "curMax": 0.6,
    "curMin": 0.3,
    "curveLength": 10,
    "enableExit": true,
    "speedMax": 5.5,
    "speedMin": 1.5
  },
  "dither": {
    "showDitherDuration": 2.0
  },
  "model": {
    "bornEffect": "Eff_Monster_Common_Born"
  },
  "billboard": {
    "$type": "ConfigCombatBillboard",
    "offsetType": "Character",
    "offset": {
      "x": 0,
      "y": 0.5,
      "z": 1.0
    },
    "showHPBar": true,
    "radiusOffset": 0.25,
    "size": "Big"
  },
  "combat": {
    "property": {
      "weight": 300, //weightLevel = 2
      "endureType": "Monster_Boss_Other"
    },
    "combatLock": {
      "denyLockOn": false,
      "lockType": "Avatar&Monster_Lv4"
    },
    "beHit": {
      "hitBloodEffect": "",
      "muteAllHit": false,
      "muteAllHitEffect": false,
      "muteAllHitText": false,
      "hitAutoRedirect": false
    },
    "die": {
      "hasAnimatorDie": true,
      "dieDisappearEffect": "Eff_Death_Common_Animal",
      "dieDisappearEffectDelay": 0,
      "dieEndTime": 0.0,
      "dieForceDisappearTime": 2.0,
      "useRagDoll": false,
      "muteHitBox": true,
      "dieDenyLockOn": true,
      "dieIsGhostToEnemy": true,
      "dieIgnoreTriggerBullet": true,
      "muteBillboard": true,
      "mutePushCollider": true
    },
    "animEvents": {
      "AtkNo": {
        "attackPattern": {
          "$type": "ConfigAttackCircle",
          "triggerType": "TriggerNoRepeat",
          "fanAngle": 60.0,
          "radius": 1.5,
          "born": {
            "$type": "ConfigBornBySelf",
            "offset": {
              "x": 0.0,
              "y": 0.0,
              "z": -0.5
            }
          }
        },
        "attackInfo": {
          "attackProperty": {
            "damagePercentage": 0.5,
            "strikeType": "Blunt",
            "attackType": "Melee"
          },
          "hitPattern": {
            "onHitEffectName": "default",
            "hitImpulseType": "LV2",
            "reboundRatio": 0,
            "hitHaltTime": 0.0,
            "hitHaltTimeScale": 0.01,
            "muteHitText": false
          }
        }
      },
      "Megamoth_HitScene": {
        "attackPattern": {
          "$type": "ConfigAttackCircle",
          "triggerType": "TriggerNoRepeat",
          "checkHitLayerType": "OnlyHitScene",
          "fanAngle": 45.0,
          "radius": 4.5,
          "born": {
            "$type": "ConfigBornBySelf",
            "offset": {
              "x": 0.0,
              "y": 1.0,
              "z": 1.0
            }
          }
        },
        "attackInfo": {
          "forceCameraShake": false,
          "cameraShake": {
            "shakeType": "Center",
            "shakeRange": 0.16,
            "shakeTime": 0.15,
            "shakeDistance": 25.0
          }
        }
      }
    }
  },
  "inputKeys": [
    {
      "keyID": 601,
      "inputKeyCode": 257
    },
    {
      "keyID": 611,
      "inputKeyCode": 258
    },
    {
      "keyID": 621,
      "inputKeyCode": 259
    }
  ],
  "stateLayers": {
    "defaultLayer": {
      "$type": "ConfigNormalStateLayer",
      "stateIDs": {
        "NormalIdle": {
          "$type": "ConfigMonsterStateIDInfo",
          "animatorStates": {
            "Standby": [],
            "Born": []
          },
          "combatMove": true,
          "canDoSkill": true,
          "canSyncMove": true,
          "resetAnimatorTriggerOnExit": ["DoSkill"]
        },
        "Sit": {
          "$type": "ConfigMonsterStateIDInfo",
          "animatorStates": {
            "Sit": []
          },
          "combatMove": true,
          "canDoSkill": true,
          "canSyncMove": true,
          "resetAnimatorTriggerOnExit": ["DoSkill"]
        },
        "Lying": {
          "$type": "ConfigMonsterStateIDInfo",
          "animatorStates": {
            "Lying": []
          },
          "combatMove": true,
          "canDoSkill": true,
          "canSyncMove": true,
          "resetAnimatorTriggerOnExit": ["DoSkill"]
        },
        "Walk": {
          "$type": "ConfigMonsterStateIDInfo",
          "animatorStates": {
            "Walk": [
              "Audio_Monster_Megamoth_Walk_L",
              "Monster_Megamoth_None_Megamoth_WalkEffect"
            ]
          },
          "combatMove": true,
          "canDoSkill": true,
          "canSteer": true,
          "canSyncMove": true,
          "resetAnimatorTriggerOnExit": ["DoSkill"]
        },
        "Run": {
          "$type": "ConfigMonsterStateIDInfo",
          "animatorStates": {
            "Run": ["Audio_Monster_Megamoth_Run_L"]
          },
          "combatMove": true,
          "canDoSkill": true,
          "canSteer": true,
          "canSyncMove": true,
          "resetAnimatorTriggerOnExit": ["DoSkill"]
        },
        "Turn": {
          "$type": "ConfigMonsterStateIDInfo",
          "animatorStates": {
            "TurnLeft": ["Audio_Monster_Megamoth_Walk_L"],
            "TurnRight": ["Audio_Monster_Megamoth_Walk_L"],
            "TurnBack": ["Audio_Monster_Megamoth_Walk_L"]
          },
          "combatMove": true,
          "followAnimRotation": true,
          "canDoSkill": true,
          "canSteer": true,
          "canSyncMove": true,
          "resetAnimatorTriggerOnExit": ["DoSkill"]
        },
        "SurroundTurn": {
          "$type": "ConfigMonsterStateIDInfo",
          "animatorStates": {
            "SurroundTurn": [""]
          },
          "combatMove": true,
          "canSteer": true,
          "canSyncMove": false,
          "followAnimRotation": true,
          "resetAnimatorTriggerOnEnter": ["SurroundBigTurn"],
          "resetAnimatorTriggerOnExit": ["DoSkill", "SurroundBigTurn"]
        },
        "BeHit": {
          "$type": "ConfigMonsterStateIDInfo",
          "animatorStates": {
            "Hit_L": [""]
          },
          "combatMove": true,
          "resetAnimatorTriggerOnEnter": ["BeHit"],
          "resetAnimatorTriggerOnExit": ["DoSkill"]
        },
        "Chew": {
          "$type": "ConfigMonsterStateIDInfo",
          "animatorStates": {
            "Chew": [""]
          }
        },
        "Die": {
          "$type": "ConfigMonsterStateIDInfo",
          "animatorStates": {
            "Die": [
              "Monster_Megamoth_None_Megamoth_Die",
              "Audio_Monster_Megamoth_Die_L"
            ]
          }
        },
        "Personality1": {
          "$type": "ConfigMonsterStateIDInfo",
          "animatorStates": {
            "Personality1": ["Audio_Monster_Megamoth_Personality1_L"]
          },
          "canDoSkill": true,
          "resetAnimatorTriggerOnExit": ["BeHit", "DoSkill"]
        },
        "Personality2": {
          "$type": "ConfigMonsterStateIDInfo",
          "animatorStates": {
            "Personality2": ["Audio_Monster_Megamoth_Personality2_L"]
          },
          "canDoSkill": true,
          "resetAnimatorTriggerOnExit": ["BeHit", "DoSkill"]
        },
        "Personality3_BS": {
          "$type": "ConfigMonsterStateIDInfo",
          "animatorStates": {
            "Personality3_BS": ["Audio_Monster_Megamoth_Personality3_BS_L"]
          },
          "canDoSkill": true,
          "resetAnimatorTriggerOnExit": ["BeHit", "DoSkill"]
        },
        "Personality3_Loop": {
          "$type": "ConfigMonsterStateIDInfo",
          "animatorStates": {
            "Personality3_Loop": [""]
          },
          "canDoSkill": true,
          "resetAnimatorTriggerOnExit": ["BeHit", "DoSkill"]
        },
        "Personality3_AS": {
          "$type": "ConfigMonsterStateIDInfo",
          "animatorStates": {
            "Personality3_AS": ["Audio_Monster_Megamoth_Alert_Sit_L"]
          },
          "resetAnimatorTriggerOnExit": ["BeHit", "DoSkill"]
        },
        "Personality4_BS": {
          "$type": "ConfigMonsterStateIDInfo",
          "animatorStates": {
            "Personality4_BS": ["Audio_Monster_Megamoth_Personality4_BS_L"]
          },
          "canDoSkill": true,
          "resetAnimatorTriggerOnExit": ["BeHit", "DoSkill"]
        },
        "Personality4_Loop": {
          "$type": "ConfigMonsterStateIDInfo",
          "animatorStates": {
            "Personality4_Loop": [""]
          },
          "canDoSkill": true,
          "resetAnimatorTriggerOnExit": ["BeHit", "DoSkill"]
        },
        "Personality4_Play": {
          "$type": "ConfigMonsterStateIDInfo",
          "animatorStates": {
            "Personality4_Play": ["Audio_Monster_Megamoth_Personality4_Play_L"]
          },
          "canDoSkill": true,
          "resetAnimatorTriggerOnExit": ["BeHit", "DoSkill"]
        },
        "Personality4_AS": {
          "$type": "ConfigMonsterStateIDInfo",
          "animatorStates": {
            "Personality4_AS": ["Audio_Monster_Megamoth_Alert_Sleep_L"]
          },
          "resetAnimatorTriggerOnExit": ["BeHit", "DoSkill"]
        },
        "Personality5": {
          "$type": "ConfigMonsterStateIDInfo",
          "animatorStates": {
            "Personality5": ["Audio_Monster_Megamoth_Personality4_Play_L"]
          },
          "canDoSkill": true,
          "resetAnimatorTriggerOnExit": ["BeHit", "DoSkill"]
        },
        "Alert": {
          "$type": "ConfigMonsterStateIDInfo",
          "animatorStates": {
            "Alert": ["Audio_Monster_Megamoth_Alert_L"]
          },
          "resetAnimatorTriggerOnExit": ["BeHit", "DoSkill"]
        },
        "Alert_Sit": {
          "$type": "ConfigMonsterStateIDInfo",
          "animatorStates": {
            "Alert_Sit": ["Audio_Monster_Megamoth_Alert_Sit_L"]
          },
          "resetAnimatorTriggerOnExit": ["BeHit", "DoSkill"]
        },
        "Alert_Sleep": {
          "$type": "ConfigMonsterStateIDInfo",
          "animatorStates": {
            "Alert_Sleep": ["Audio_Monster_Megamoth_Alert_Sleep_L"]
          },
          "resetAnimatorTriggerOnExit": ["BeHit", "DoSkill"]
        },
        "Attack01_BS": {
          "$type": "ConfigMonsterStateIDInfo",
          "animatorStates": {
            "Attack01_BS": ["Audio_Monster_Megamoth_Attack01_BS_L"]
          },
          "resetAnimatorTriggerOnExit": ["BeHit", "DoSkill"]
        },
        "Attack01_Turn_L": {
          "$type": "ConfigMonsterStateIDInfo",
          "animatorStates": {
            "Attack01_Turn_L": ["Audio_Monster_Megamoth_Attack_TurnRun_L"]
          },
          "canSteer": true,
          "resetAnimatorTriggerOnExit": ["BeHit", "DoSkill"]
        },
        "Attack01_Turn_R": {
          "$type": "ConfigMonsterStateIDInfo",
          "animatorStates": {
            "Attack01_Turn_R": ["Audio_Monster_Megamoth_Attack_TurnRun_L"]
          },
          "canSteer": true,
          "resetAnimatorTriggerOnExit": ["BeHit", "DoSkill"]
        },
        "Attack01_Turn_L_HitScence": {
          "$type": "ConfigMonsterStateIDInfo",
          "animatorStates": {
            "Attack01_Turn_L_HitScence": [
              "Audio_Monster_Megamoth_Attack_TurnRun_L"
            ]
          },
          "canSyncMove": true,
          "resetAnimatorTriggerOnExit": ["BeHit", "DoSkill"]
        },
        "Attack01_Turn_R_HitScence": {
          "$type": "ConfigMonsterStateIDInfo",
          "animatorStates": {
            "Attack01_Turn_R_HitScence": [
              "Audio_Monster_Megamoth_Attack_TurnRun_L"
            ]
          },
          "canSyncMove": true,
          "resetAnimatorTriggerOnExit": ["BeHit", "DoSkill"]
        },
        "Attack01_Run": {
          "$type": "ConfigMonsterStateIDInfo",
          "animatorStates": {
            "Attack01_Run": [
              "Monster_Megamoth_None_Megamoth_HitScene",
              "Audio_Monster_Megamoth_Run_L"
            ]
          },
          "combatMove": true,
          "resetAnimatorTriggerOnExit": ["BeHit", "DoSkill"]
        },
        "Attack01_Run_Extra": {
          "$type": "ConfigMonsterStateIDInfo",
          "animatorStates": {
            "Attack01_Run_Extra": ["Audio_Monster_Megamoth_Run_L"]
          },
          "resetAnimatorTriggerOnExit": ["BeHit", "DoSkill"]
        },
        "Attack01_Loop": {
          "$type": "ConfigMonsterStateIDInfo",
          "animatorStates": {
            "Attack01_Loop": [
              "Monster_Megamoth_None_Megamoth_HitScene",
              "Audio_Monster_Megamoth_Run_L"
            ]
          },
          "resetAnimatorTriggerOnExit": ["BeHit", "DoSkill"]
        },
        "Attack01_Loop_Extra": {
          "$type": "ConfigMonsterStateIDInfo",
          "animatorStates": {
            "Attack01_Loop_Extra": ["Audio_Monster_Megamoth_Run_L"]
          },
          "resetAnimatorTriggerOnExit": ["BeHit", "DoSkill"]
        },
        "Attack01_AS": {
          "$type": "ConfigMonsterStateIDInfo",
          "animatorStates": {
            "Attack01_AS": ["Audio_Monster_Megamoth_Attack01_AS_L"]
          },
          "followAnimRotation": true,
          "canSteer": true,
          "resetAnimatorTriggerOnExit": ["BeHit", "DoSkill"]
        },
        "Attack01_AS_HitScence": {
          "$type": "ConfigMonsterStateIDInfo",
          "animatorStates": {
            "Attack01_AS_HitScence": ["Audio_Monster_Megamoth_Attack01_AS_L"]
          },
          "resetAnimatorTriggerOnExit": ["BeHit", "DoSkill"]
        },
        "Attack02_BS": {
          "$type": "ConfigMonsterStateIDInfo",
          "animatorStates": {
            "Attack02_BS": ["Audio_Monster_Megamoth_Attack02_BS_L"]
          },
          "followAnimRotation": true,
          "resetAnimatorTriggerOnExit": ["BeHit", "DoSkill"]
        },
        "Attack02_Turn_L": {
          "$type": "ConfigMonsterStateIDInfo",
          "animatorStates": {
            "Attack02_Turn_L": ["Audio_Monster_Megamoth_Attack_TurnRun_L"]
          },
          "resetAnimatorTriggerOnExit": ["BeHit", "DoSkill"]
        },
        "Attack02_Turn_R": {
          "$type": "ConfigMonsterStateIDInfo",
          "animatorStates": {
            "Attack02_Turn_R": ["Audio_Monster_Megamoth_Attack_TurnRun_L"]
          },
          "resetAnimatorTriggerOnExit": ["BeHit", "DoSkill"]
        },
        "Attack02_Turn_L_HitScence": {
          "$type": "ConfigMonsterStateIDInfo",
          "animatorStates": {
            "Attack02_Turn_L_HitScence": [
              "Audio_Monster_Megamoth_Attack_TurnRun_L"
            ]
          },
          "canSyncMove": true,
          "resetAnimatorTriggerOnExit": ["BeHit", "DoSkill"]
        },
        "Attack02_Turn_R_HitScence": {
          "$type": "ConfigMonsterStateIDInfo",
          "animatorStates": {
            "Attack02_Turn_R_HitScence": [
              "Audio_Monster_Megamoth_Attack_TurnRun_L"
            ]
          },
          "canSyncMove": true,
          "resetAnimatorTriggerOnExit": ["BeHit", "DoSkill"]
        },
        "Attack02_Run": {
          "$type": "ConfigMonsterStateIDInfo",
          "animatorStates": {
            "Attack02_Run": [
              "Monster_Megamoth_None_Megamoth_HitScene",
              "Audio_Monster_Megamoth_Run_L"
            ]
          },
          "resetAnimatorTriggerOnExit": ["BeHit", "DoSkill"]
        },
        "Attack02_Run_Extra": {
          "$type": "ConfigMonsterStateIDInfo",
          "animatorStates": {
            "Attack02_Run_Extra": ["Audio_Monster_Megamoth_Run_L"]
          },
          "resetAnimatorTriggerOnExit": ["BeHit", "DoSkill"]
        },
        "Attack02_Loop": {
          "$type": "ConfigMonsterStateIDInfo",
          "animatorStates": {
            "Attack02_Loop": [
              "Monster_Megamoth_None_Megamoth_HitScene",
              "Audio_Monster_Megamoth_Attack02_Loop_L"
            ]
          },
          "resetAnimatorTriggerOnExit": ["BeHit", "DoSkill"]
        },
        "Attack02_Loop_Extra": {
          "$type": "ConfigMonsterStateIDInfo",
          "animatorStates": {
            "Attack02_Loop_Extra": ["Audio_Monster_Megamoth_Attack02_Loop_L"]
          },
          "resetAnimatorTriggerOnExit": ["BeHit", "DoSkill"]
        },
        "Attack02_AS": {
          "$type": "ConfigMonsterStateIDInfo",
          "animatorStates": {
            "Attack02_AS": ["Audio_Monster_Megamoth_Attack02_AS_L"]
          },
          "resetAnimatorTriggerOnExit": ["BeHit", "DoSkill"]
        },
        "Attack02_AS_HitScence": {
          "$type": "ConfigMonsterStateIDInfo",
          "animatorStates": {
            "Attack02_AS_HitScence": ["Audio_Monster_Megamoth_Attack02_AS_L"]
          },
          "resetAnimatorTriggerOnExit": ["BeHit", "DoSkill"]
        }
      }
    }
  },
  "abilities": [
    {
      "abilityID": "Steer",
      "abilityName": "Monster_Megamoth_None_Steer"
    },
    {
      "abilityID": "Attack01",
      "abilityName": "Monster_Megamoth_None_Attack01"
    },
    {
      "abilityID": "Attack02",
      "abilityName": "Monster_Megamoth_None_Attack02"
    },
    {
      "abilityID": "EffAdapter",
      "abilityName": "Monster_Megamoth_None_EffAdapter"
    },
    {
      "abilityID": "EffAdapter",
      "abilityName": "Monster_Megamoth_None_LeftBack_Foot_Eff"
    },
    {
      "abilityID": "EffAdapter",
      "abilityName": "Monster_Megamoth_None_LeftFront_Foot_Eff"
    },
    {
      "abilityID": "EffAdapter",
      "abilityName": "Monster_Megamoth_None_RightBack_Foot_Eff"
    },
    {
      "abilityID": "EffAdapter",
      "abilityName": "Monster_Megamoth_None_RightFront_Foot_Eff"
    },
    {
      "abilityID": "ChewControl",
      "abilityName": "Monster_Megamoth_None_ChewControl"
    },
    {
      "abilityID": "Personality03",
      "abilityName": "Monster_Megamoth_None_Personality03"
    },
    {
      "abilityID": "Personality04",
      "abilityName": "Monster_Megamoth_None_Personality04"
    },
    {
      "abilityID": "RCMethod",
      "abilityName": "Monster_Megamoth_None_RCMethod"
    }
  ],
  "initialPoses": {
    "Default": {
      "initialPoseID": 1
    },
    "Sit": {
      "initialPoseID": 2,
      "initialPoseParams": {
        "boolParams": {
          "Sit": "true"
        }
      }
    },
    "Sleep": {
      "initialPoseID": 3,
      "initialPoseParams": {
        "boolParams": {
          "Sleep": "true"
        }
      }
    },
    "DefaultNoSkill": {
      "initialPoseID": 4,
      "initialPoseParams": {
        "boolParams": {
          "DefaultNoSkill": "true"
        }
      }
    }
  },
  "aibeta": {
    "enable": true,
    "skillGCD": 0.5,
    "moveSetting": {
      "moveCategory": "Land"
    },
    "skillSetting": {
      "skillEliteSet": {
        "0": [601, 231, 241], //小冲锋+无包
        "1": [601, 211], //小冲锋+有包
        "2": [611], //大冲锋+无包
        "3": [611, 211] //大冲锋+有包
      }
    },
    "skillGroupCDConfigs": [
      {
        "skillGroupCDID": 2,
        "skillGroupCDTime": 20
      }
    ],
    "sensing": {
      "settings": {
        "DefaultSetting": {
          "viewRange": 0.0,
          "feelRange": 0.0,
          "sourcelessHitAttractionRange": 20
        },
        "HighSensing": {
          "viewRange": 12.0,
          "feelRange": 4.0,
          "hearAttractionRange": 0.0,
          "sourcelessHitAttractionRange": 20
        },
        "LowSensing": {
          "viewRange": 6.0,
          "feelRange": 2.0,
          "hearAttractionRange": 0.0,
          "sourcelessHitAttractionRange": 20
        },
        "NoSensing": {
          "viewRange": 0.0,
          "feelRange": 0.0,
          "hearAttractionRange": 0.0,
          "sourcelessHitAttractionRange": 20
        }
      },
      "templates": {
        "DefaultTemplate": {
          "DefaultPoses": "NoSensing"
        },
        "NoSensing": {
          "DefaultPoses": "NoSensing"
        },
        "LowSensing": {
          "DefaultPoses": "LowSensing"
        },
        "HighSensing": {
          "DefaultPoses": "HighSensing"
        }
      }
    },
    "defendArea": {
      "enable": true
    },
    "threat": {
      "clearThreatTargetDistance": 60.0,
      "clearThreatTimerByDistance": 2.0,
      "clearThreatEdgeDistance": 60.0,
      "clearThreatByLostPath": true,
      "clearThreatTimerByLostPath": 10,
      "clearThreatByTargetOutOfZone": true,
      "clearThreatTimerByTargetOutOfZone": 5,
      "viewAttenuation": [
        { "x": 10.0, "y": 2.0 },
        { "x": 20.0, "y": 1.0 },
        { "x": 30.0, "y": 0.5 },
        { "x": 50.0, "y": 0.1 }
      ]
    },
    // "surroundTactic":
    // {
    // 	"enable": true,
    // 	"condition":
    // 	{
    // 		"pose": [101],
    // 	},
    // 	"defaultSetting":
    // 	{
    // 		"speedLevel": 1,
    // 		"turnSpeedOverride": 0.2,
    // 		"startDistance": 0.1,
    // 		"surroundRadius": 4.0,
    // 		"detectFrontOffsetUp": 0.0,
    // 		"detectFrontOffsetForward": 1.0,
    // 	},
    // },
    "fleeTactic": {
      "condition": {
        "pose": [102]
      },
      "enable": true,
      "defaultSetting": {
        "speedLevel": 2,
        "turnSpeedOverride": 1.0,
        "cd": 0.0,
        "triggerDistance": 100,
        "fleeNumberMin": 1,
        "fleeNumberMax": 1,
        "fleeDistanceMin": 30,
        "fleeDistanceMax": 50
      }
    },
    "returnToBornTactic": {
      "enable": true,
      "defaultSetting": {
        "speedLevel": 2,
        "turnSpeedOverride": 0.8
      }
    },
    "wanderTactic": {
      "enable": true,
      "condition": {
        "pose": [1]
      },
      "defaultSetting": {
        "speedLevel": 1,
        "cdMin": 12,
        "cdMax": 16,
        "distanceFromBorn": 30.0,
        "distanceFromCurrentMin": 12,
        "distanceFromCurrentMax": 16,
        "turnSpeedOverride": 0.12
      }
    },
    "meleeChargeTactic": {
      "enable": true,
      "condition": {
        "pose": [101]
      },
      "defaultSetting": {
        "speedLevel": 2,
        "speedLevelInner": 1,
        "innerDistance": 10,
        "stopDistance": 12,
        "startDistanceMin": 25.0,
        "startDistanceMax": 50
      }
    },
    "skills": {
      "101": {
        "name": "OnAlert",
        "stateIDs": ["Alert"],
        "skillType": "OnAlert",
        "skillQueryingTime": 3,
        "triggerGCD": false,
        "ignoreGCD": true,
        "faceTarget": true,
        "castCondition": {
          "pose": [1, 4]
        }
      },
      "111": {
        "name": "OnAlert_Sit",
        "stateIDs": ["Alert_Sit"],
        "skillType": "OnAlert",
        "skillQueryingTime": 3,
        "triggerGCD": false,
        "ignoreGCD": true,
        "castCondition": {
          "pose": [2]
        }
      },
      "121": {
        "name": "OnAlert_Sleep",
        "stateIDs": ["Alert_Sleep"],
        "skillType": "OnAlert",
        "skillQueryingTime": 3,
        "triggerGCD": false,
        "ignoreGCD": true,
        "castCondition": {
          "pose": [3]
        }
      },
      "201": {
        "cd": 15.0,
        "cdUpperRange": 10.0,
        "initialCD": 2.5,
        "initialCDUpperRange": 5.0,
        "name": "Personality1",
        "stateIDs": ["Personality1"],
        "priority": 6,
        "skillGroupCDID": 2,
        "skillType": "Free",
        "castCondition": {
          "pose": [1]
        }
      },
      "211": {
        "cd": 20.0,
        "cdUpperRange": 10.0,
        "initialCD": 2.5,
        "initialCDUpperRange": 5.0,
        "name": "Personality2",
        "stateIDs": ["Personality2"],
        "priority": 6,
        "skillGroupCDID": 2,
        "skillType": "Free",
        "castCondition": {
          "pose": [1]
        }
      },
      "221": {
        "cd": 40.0,
        "cdUpperRange": 15.0,
        "initialCD": 10.5,
        "initialCDUpperRange": 5.0,
        "name": "Personality3",
        "stateIDs": ["Personality3_BS", "Personality3_Loop", "Personality3_AS"],
        "skillGroupCDID": 2,
        "skillType": "Free",
        "castCondition": {
          "pose": [1]
        }
      },
      "231": {
        "cd": 60.0,
        "cdUpperRange": 25.0,
        "initialCD": 15.5,
        "initialCDUpperRange": 5.0,
        "name": "Personality4",
        "stateIDs": [
          "Personality4_BS",
          "Personality4_Loop",
          "Personality4_AS",
          "Personality4_Play"
        ],
        "skillGroupCDID": 2,
        "skillType": "Free",
        "castCondition": {
          "pose": [1]
        }
      },
      "241": {
        "cd": 15.0,
        "cdUpperRange": 15.0,
        "initialCD": 5.5,
        "initialCDUpperRange": 5.0,
        "name": "Personality5",
        "stateIDs": ["Personality5"],
        "skillType": "Free",
        "castCondition": {
          "pose": [3]
        }
      },
      "601": {
        "cd": 0.0,
        "cdUpperRange": 1.0,
        "triggerGCD": true,
        "combatSkillType": "RangedAttack",
        "name": "RangedAttack1",
        "stateIDs": [
          "Attack01_AS_HitScence",
          "Attack01_Run_Extra",
          "Attack01_Loop_Extra",
          "Attack01_BS",
          "Attack01_Turn_L",
          "Attack01_Turn_R",
          "Attack01_Run",
          "Attack01_Loop",
          "Attack01_AS",
          "Attack01_Turn_L_HitScence",
          "Attack01_Turn_R_HitScence"
        ],
        "flagSelfInZone": "11",
        "flagTargetReachable": "11",
        "flagSelfOnTemplateCollider": "11",
        "castCondition": {
          "pickRangeMin": 0,
          "pickRangeMax": 40.0,
          "pose": [101]
        }
      },
      "611": {
        "cd": 0.0,
        "cdUpperRange": 1.0,
        "triggerGCD": true,
        "combatSkillType": "RangedAttack",
        "name": "RangedAttack2",
        "stateIDs": [
          "Attack02_AS_HitScence",
          "Attack02_Run_Extra",
          "Attack02_Loop_Extra",
          "Attack02_BS",
          "Attack02_Turn_L",
          "Attack02_Turn_R",
          "Attack02_Run",
          "Attack02_Loop",
          "Attack02_AS",
          "Attack02_Turn_L_HitScence",
          "Attack02_Turn_R_HitScence"
        ],
        "flagSelfInZone": "11",
        "flagTargetReachable": "11",
        "flagSelfOnTemplateCollider": "11",
        "castCondition": {
          "pickRangeMin": 0,
          "pickRangeMax": 40.0,
          "pose": [101]
        }
      }
    }
  },
  "audio": {
    "$type": "ConfigMonsterAudio",
    "animAudio": {
      "onTransitionOut": [
        {
          "currentStateName": "Personality1",
          "audioEvent": {
            "text": "Stop_sfx_monster_Megamoth_personality1_L"
          },
          "otherStateNames": [],
          "usage": "Any"
        },
        {
          "currentStateName": "Personality2",
          "audioEvent": {
            "text": "Stop_sfx_monster_Megamoth_personality2_L"
          },
          "otherStateNames": [],
          "usage": "Any"
        },
        {
          "currentStateName": "Personality3_BS",
          "audioEvent": {
            "text": "Stop_sfx_monster_Megamoth_personality3_BS_L"
          },
          "otherStateNames": [],
          "usage": "Any"
        },
        {
          "currentStateName": "Personality4_BS",
          "audioEvent": {
            "text": "Stop_sfx_monster_Megamoth_personality4_BS_L"
          },
          "otherStateNames": [],
          "usage": "Any"
        },
        {
          "currentStateName": "Personality4_Play",
          "audioEvent": {
            "text": "Stop_sfx_monster_Megamoth_personality4_Play_L"
          },
          "otherStateNames": [],
          "usage": "Any"
        },
        {
          "currentStateName": "Personality5",
          "audioEvent": {
            "text": "Stop_sfx_monster_Megamoth_personality4_Play_L"
          },
          "otherStateNames": [],
          "usage": "Any"
        }
      ],
      "onTransitionIn": [
        {
          "currentStateName": "",
          "audioEvent": {
            "text": ""
          },
          "otherStateNames": [],
          "usage": "Any"
        }
      ]
    }
  }
}
